[
    {
        "model": "business.customer",
        "pk": 1,
        "fields": {
            "dni": "44941322",
            "first_name": "Franz",
            "last_name": "Orbezo",
            "fecha_creacion": "2022-08-17 08:30:00"
        }
    },
    {
        "model": "business.customer",
        "pk": 2,
        "fields": {
            "dni": "44941325",
            "first_name": "Alexander",
            "last_name": "Rivera",
            "fecha_creacion": "2022-08-17 08:30:00"
        }
    },
    {
        "model": "business.customer",
        "pk": 3,
        "fields": {
            "dni": "45781289",
            "first_name": "Lucy",
            "last_name": "Espejo",
            "fecha_creacion": "2022-08-17 08:30:00"
        }
    },
    {
        "model": "business.customer",
        "pk": 4,
        "fields": {
            "dni": "89562378",
            "first_name": "Elizabeth",
            "last_name": "Rivera",
            "fecha_creacion": "2022-08-17 08:30:00"
        }
    },
    {
        "model": "business.customer",
        "pk": 5,
        "fields": {
            "dni": "78458956",
            "first_name": "Talia",
            "last_name": "Espinoza",
            "fecha_creacion": "2022-08-17 08:30:00"
        }
    }
]